%YAML 1.1
%TAG !u! tag:unity3d.com,2011:
--- !u!114 &11400000
MonoBehaviour:
  m_ObjectHideFlags: 0
  m_PrefabParentObject: {fileID: 0}
  m_PrefabInternal: {fileID: 0}
  m_GameObject: {fileID: 0}
  m_Enabled: 1
  m_EditorHideFlags: 0
  m_Script: {fileID: 11500000, guid: a8226369d4016bb4dadf5671a359ada9, type: 3}
  m_Name: Wings
  m_EditorClassIdentifier: 
  name: New Item
  eq:
    equipSlot: 1
    itemIndex: 3
    speedModifier: 3
  equipSlot: 0
  mesh: {fileID: 0}
  itemIndex: 0
  newWeaponPrefab: {fileID: 0}
  speedModifier: 0
