%YAML 1.1
%TAG !u! tag:unity3d.com,2011:
--- !u!21 &2100000
Material:
  serializedVersion: 6
  m_ObjectHideFlags: 0
  m_PrefabParentObject: {fileID: 0}
  m_PrefabInternal: {fileID: 0}
  m_Name: New Terrain 3_Material
  m_Shader: {fileID: 4800000, guid: d3d3a049696803041b50d2a1625c0348, type: 3}
  m_ShaderKeywords: _NORMALMAP
  m_LightmapFlags: 4
  m_EnableInstancingVariants: 0
  m_DoubleSidedGI: 0
  m_CustomRenderQueue: -1
  stringTagMap: {}
  disabledShaderPasses: []
  m_SavedProperties:
    serializedVersion: 3
    m_TexEnvs:
    - _MainTex:
        m_Texture: {fileID: 0}
        m_Scale: {x: 1, y: 1}
        m_Offset: {x: 0, y: 0}
    - _V_T2M_Control:
        m_Texture: {fileID: 2800000, guid: 2f0f5009946566440ac01f725232b8b5, type: 3}
        m_Scale: {x: 1, y: 1}
        m_Offset: {x: 0, y: 0}
    - _V_T2M_Splat1:
        m_Texture: {fileID: 2800000, guid: a39859eb6ad0acb479534586f52aa9cc, type: 3}
        m_Scale: {x: 1, y: 1}
        m_Offset: {x: 0, y: 0}
    - _V_T2M_Splat1_bumpMap:
        m_Texture: {fileID: 2800000, guid: 6f00ce1c23454a1488f4dc1d550236cd, type: 3}
        m_Scale: {x: 1, y: 1}
        m_Offset: {x: 0, y: 0}
    - _V_T2M_Splat2:
        m_Texture: {fileID: 2800000, guid: 2879bc56b8312434cb4f79879305db68, type: 3}
        m_Scale: {x: 1, y: 1}
        m_Offset: {x: 0, y: 0}
    - _V_T2M_Splat2_bumpMap:
        m_Texture: {fileID: 2800000, guid: 497a21086c1debc49b775e34636aaa1e, type: 3}
        m_Scale: {x: 1, y: 1}
        m_Offset: {x: 0, y: 0}
    m_Floats:
    - _V_T2M_Splat1_Glossiness: 0
    - _V_T2M_Splat1_Metallic: 0
    - _V_T2M_Splat1_uvScale: 10
    - _V_T2M_Splat2_Glossiness: 0
    - _V_T2M_Splat2_Metallic: 0
    - _V_T2M_Splat2_uvScale: 6.3636365
    m_Colors:
    - _Color: {r: 1, g: 1, b: 1, a: 1}
